write "<Relacni operatory>";
write "1<5: ", 1 < 5;
write "1>=3.5: ", 1 >= 3.5;
write "aa=aa: ", "aa"=="aa";
write "aa=ab: ", "aa"=="ab";
write "aa<>ab: ", "aa"!="ab";
write "";
write "<Logicke operatory>";
write "false and true (false):", False && True;
write "false or true (true):", False || True;
write "not 1==2 (true):", !(1==2);
write "true or false and true (false):", True || False && True;